EESchema Schematic File Version 2
LIBS:power
LIBS:device
LIBS:switches
LIBS:relays
LIBS:motors
LIBS:transistors
LIBS:conn
LIBS:linear
LIBS:regul
LIBS:74xx
LIBS:cmos4000
LIBS:adc-dac
LIBS:memory
LIBS:xilinx
LIBS:microcontrollers
LIBS:dsp
LIBS:microchip
LIBS:analog_switches
LIBS:motorola
LIBS:texas
LIBS:intel
LIBS:audio
LIBS:interface
LIBS:digital-audio
LIBS:philips
LIBS:display
LIBS:cypress
LIBS:siliconi
LIBS:opto
LIBS:atmel
LIBS:contrib
LIBS:valves
LIBS:ECG-1_chanel-cache
EELAYER 25 0
EELAYER END
$Descr A4 11693 8268
encoding utf-8
Sheet 1 1
Title ""
Date ""
Rev ""
Comp ""
Comment1 ""
Comment2 ""
Comment3 ""
Comment4 ""
$EndDescr
$Comp
L INA128 U?
U 1 1 5DE1FD48
P 7400 2500
F 0 "U?" H 7550 2625 50  0000 L CNN
F 1 "INA128" H 7550 2375 50  0000 L CNN
F 2 "" H 7500 2500 50  0001 C CNN
F 3 "" H 7500 2500 50  0001 C CNN
	1    7400 2500
	1    0    0    -1  
$EndComp
$Comp
L R_Small R?
U 1 1 5DE1FFDB
P 6300 2250
F 0 "R?" H 6330 2270 50  0000 L CNN
F 1 "1k" H 6330 2210 50  0000 L CNN
F 2 "" H 6300 2250 50  0001 C CNN
F 3 "" H 6300 2250 50  0001 C CNN
	1    6300 2250
	0    1    1    0   
$EndComp
$Comp
L R_Small R?
U 1 1 5DE200FE
P 6300 2750
F 0 "R?" H 6330 2770 50  0000 L CNN
F 1 "1k" H 6330 2710 50  0000 L CNN
F 2 "" H 6300 2750 50  0001 C CNN
F 3 "" H 6300 2750 50  0001 C CNN
	1    6300 2750
	0    1    1    0   
$EndComp
$Comp
L TL074 U?
U 1 1 5DE20191
P 7000 4900
F 0 "U?" H 7000 5100 50  0000 L CNN
F 1 "TL074" H 7000 4700 50  0000 L CNN
F 2 "" H 6950 5000 50  0001 C CNN
F 3 "" H 7050 5100 50  0001 C CNN
	1    7000 4900
	1    0    0    -1  
$EndComp
$Comp
L TL074 U?
U 1 1 5DE201E6
P 8150 4800
F 0 "U?" H 8150 5000 50  0000 L CNN
F 1 "TL074" H 8150 4600 50  0000 L CNN
F 2 "" H 8100 4900 50  0001 C CNN
F 3 "" H 8200 5000 50  0001 C CNN
	1    8150 4800
	1    0    0    -1  
$EndComp
$Comp
L R_Small R?
U 1 1 5DE20262
P 8700 4800
F 0 "R?" H 8730 4820 50  0000 R CNN
F 1 "220k" H 8730 4760 50  0000 L CNN
F 2 "" H 8700 4800 50  0001 C CNN
F 3 "" H 8700 4800 50  0001 C CNN
	1    8700 4800
	0    1    -1   0   
$EndComp
$Comp
L C_Small C?
U 1 1 5DE2035E
P 8400 5450
F 0 "C?" H 8410 5520 50  0000 L CNN
F 1 "1nF" H 8410 5370 50  0000 L CNN
F 2 "" H 8400 5450 50  0001 C CNN
F 3 "" H 8400 5450 50  0001 C CNN
	1    8400 5450
	0    1    1    0   
$EndComp
$Comp
L C_Small C?
U 1 1 5DE20475
P 8700 5050
F 0 "C?" H 8710 5120 50  0000 L CNN
F 1 "1nF" H 8710 4970 50  0000 L CNN
F 2 "" H 8700 5050 50  0001 C CNN
F 3 "" H 8700 5050 50  0001 C CNN
	1    8700 5050
	0    1    1    0   
$EndComp
$Comp
L R_Small R?
U 1 1 5DE204B7
P 7550 4900
F 0 "R?" H 7580 4920 50  0000 L CNN
F 1 "220k" H 7580 4860 50  0000 L CNN
F 2 "" H 7550 4900 50  0001 C CNN
F 3 "" H 7550 4900 50  0001 C CNN
	1    7550 4900
	0    1    1    0   
$EndComp
Text GLabel 9150 5450 2    60   Input ~ 0
RL
Text GLabel 6000 2750 0    60   Input ~ 0
LA
Text GLabel 6000 2250 0    60   Input ~ 0
RA
$Comp
L R_Small R?
U 1 1 5DE20C86
P 6900 2350
F 0 "R?" H 6930 2370 50  0000 L CNN
F 1 "2K7" H 6930 2310 50  0000 L CNN
F 2 "" H 6900 2350 50  0001 C CNN
F 3 "" H 6900 2350 50  0001 C CNN
	1    6900 2350
	0    1    1    0   
$EndComp
$Comp
L R_Small R?
U 1 1 5DE20E65
P 6900 2650
F 0 "R?" H 6930 2670 50  0000 L CNN
F 1 "2K7" H 6930 2610 50  0000 L CNN
F 2 "" H 6900 2650 50  0001 C CNN
F 3 "" H 6900 2650 50  0001 C CNN
	1    6900 2650
	0    1    1    0   
$EndComp
$Comp
L D_Small D?
U 1 1 5DE21152
P 6500 3100
F 0 "D?" H 6450 3180 50  0000 L CNN
F 1 "D_Small" H 6350 3020 50  0000 L CNN
F 2 "" V 6500 3100 50  0001 C CNN
F 3 "" V 6500 3100 50  0001 C CNN
	1    6500 3100
	0    1    1    0   
$EndComp
$Comp
L D_Small D?
U 1 1 5DE211B1
P 6750 3100
F 0 "D?" H 6700 3180 50  0000 L CNN
F 1 "D_Small" H 6600 3020 50  0000 L CNN
F 2 "" V 6750 3100 50  0001 C CNN
F 3 "" V 6750 3100 50  0001 C CNN
	1    6750 3100
	0    -1   -1   0   
$EndComp
Wire Wire Line
	8800 4800 8900 4800
Wire Wire Line
	8900 5050 8800 5050
Connection ~ 8900 4800
Wire Wire Line
	8450 4800 8600 4800
Wire Wire Line
	8600 5050 8500 5050
Wire Wire Line
	8500 5050 8500 4800
Connection ~ 8500 4800
Wire Wire Line
	8300 5450 7850 5450
Wire Wire Line
	7850 5450 7850 4900
Wire Wire Line
	9100 5450 8500 5450
Wire Wire Line
	8900 4800 8900 5450
Connection ~ 8900 5450
Connection ~ 8900 5050
Wire Wire Line
	7850 4900 7650 4900
Wire Wire Line
	7300 4900 7450 4900
Wire Wire Line
	6700 5000 6700 5500
Connection ~ 7350 4900
Wire Wire Line
	7100 2750 7100 2700
Wire Wire Line
	7100 2250 7100 2300
Wire Wire Line
	7000 2350 7100 2350
Wire Wire Line
	7100 2350 7100 2400
Wire Wire Line
	7100 2600 7100 2650
Wire Wire Line
	7100 2650 7000 2650
Wire Wire Line
	6800 2650 6750 2650
Wire Wire Line
	6750 2650 6750 2350
Wire Wire Line
	6750 2350 6800 2350
Wire Wire Line
	6000 2250 6200 2250
Wire Wire Line
	6000 2750 6200 2750
Wire Wire Line
	6400 2250 7100 2250
Wire Wire Line
	6400 2750 7100 2750
Wire Wire Line
	6500 3000 6500 2950
Wire Wire Line
	6500 2950 6750 2950
Wire Wire Line
	6750 2950 6750 3000
$Comp
L GND #PWR?
U 1 1 5DE21380
P 6600 3250
F 0 "#PWR?" H 6600 3000 50  0001 C CNN
F 1 "GND" H 6600 3100 50  0000 C CNN
F 2 "" H 6600 3250 50  0001 C CNN
F 3 "" H 6600 3250 50  0001 C CNN
	1    6600 3250
	1    0    0    -1  
$EndComp
Wire Wire Line
	6500 3200 6500 3250
Wire Wire Line
	6500 3250 6750 3250
Wire Wire Line
	6750 3250 6750 3200
Connection ~ 6600 3250
$Comp
L D_Small D?
U 1 1 5DE21667
P 6750 1950
F 0 "D?" H 6700 2030 50  0000 L CNN
F 1 "D_Small" H 6600 1870 50  0000 L CNN
F 2 "" V 6750 1950 50  0001 C CNN
F 3 "" V 6750 1950 50  0001 C CNN
	1    6750 1950
	0    -1   -1   0   
$EndComp
$Comp
L D_Small D?
U 1 1 5DE2166D
P 6500 1950
F 0 "D?" H 6450 2030 50  0000 L CNN
F 1 "D_Small" H 6350 1870 50  0000 L CNN
F 2 "" V 6500 1950 50  0001 C CNN
F 3 "" V 6500 1950 50  0001 C CNN
	1    6500 1950
	0    1    1    0   
$EndComp
Wire Wire Line
	6750 2050 6750 2100
Wire Wire Line
	6750 2100 6500 2100
Wire Wire Line
	6500 2100 6500 2050
$Comp
L GND #PWR?
U 1 1 5DE21676
P 6650 1800
F 0 "#PWR?" H 6650 1550 50  0001 C CNN
F 1 "GND" H 6650 1650 50  0000 C CNN
F 2 "" H 6650 1800 50  0001 C CNN
F 3 "" H 6650 1800 50  0001 C CNN
	1    6650 1800
	-1   0    0    1   
$EndComp
Wire Wire Line
	6750 1850 6750 1800
Wire Wire Line
	6750 1800 6500 1800
Wire Wire Line
	6500 1800 6500 1850
Connection ~ 6650 1800
Wire Wire Line
	6600 2100 6600 2250
Connection ~ 6600 2250
Connection ~ 6600 2100
Wire Wire Line
	6600 2950 6600 2750
Connection ~ 6600 2750
Connection ~ 6600 2950
Text Label 6250 2500 0    60   ~ 0
RL_Driver
Wire Wire Line
	6250 2500 6750 2500
Connection ~ 6750 2500
Text Label 6150 4800 0    60   ~ 0
RL_Driver
Wire Wire Line
	6150 4800 6700 4800
$Comp
L GND #PWR?
U 1 1 5DE2231B
P 7500 2900
F 0 "#PWR?" H 7500 2650 50  0001 C CNN
F 1 "GND" H 7500 2750 50  0000 C CNN
F 2 "" H 7500 2900 50  0001 C CNN
F 3 "" H 7500 2900 50  0001 C CNN
	1    7500 2900
	1    0    0    -1  
$EndComp
Wire Wire Line
	7500 2900 7500 2800
$Comp
L GND #PWR?
U 1 1 5DE22471
P 7850 4500
F 0 "#PWR?" H 7850 4250 50  0001 C CNN
F 1 "GND" H 7850 4350 50  0000 C CNN
F 2 "" H 7850 4500 50  0001 C CNN
F 3 "" H 7850 4500 50  0001 C CNN
	1    7850 4500
	-1   0    0    1   
$EndComp
Wire Wire Line
	7850 4500 7850 4700
$Comp
L +5V #PWR?
U 1 1 5DE22583
P 7400 2000
F 0 "#PWR?" H 7400 1850 50  0001 C CNN
F 1 "+5V" H 7400 2140 50  0000 C CNN
F 2 "" H 7400 2000 50  0001 C CNN
F 3 "" H 7400 2000 50  0001 C CNN
	1    7400 2000
	1    0    0    -1  
$EndComp
$Comp
L -5V #PWR?
U 1 1 5DE22647
P 7400 2900
F 0 "#PWR?" H 7400 3000 50  0001 L CNN
F 1 "-5V" H 7400 3050 50  0000 C CNN
F 2 "" H 7400 2900 50  0001 C CNN
F 3 "" H 7400 2900 50  0001 C CNN
	1    7400 2900
	-1   0    0    1   
$EndComp
Wire Wire Line
	7400 2200 7400 2000
Wire Wire Line
	7400 2900 7400 2800
$Comp
L TL074 U?
U 1 1 5DE229EA
P 8850 2600
F 0 "U?" H 8850 2800 50  0000 L CNN
F 1 "TL074" H 8850 2400 50  0000 L CNN
F 2 "" H 8800 2700 50  0001 C CNN
F 3 "" H 8900 2800 50  0001 C CNN
	1    8850 2600
	1    0    0    -1  
$EndComp
$Comp
L +5V #PWR?
U 1 1 5DE22C0D
P 8050 4400
F 0 "#PWR?" H 8050 4250 50  0001 C CNN
F 1 "+5V" H 8050 4540 50  0000 C CNN
F 2 "" H 8050 4400 50  0001 C CNN
F 3 "" H 8050 4400 50  0001 C CNN
	1    8050 4400
	1    0    0    -1  
$EndComp
$Comp
L +5V #PWR?
U 1 1 5DE22D17
P 6900 4500
F 0 "#PWR?" H 6900 4350 50  0001 C CNN
F 1 "+5V" H 6900 4640 50  0000 C CNN
F 2 "" H 6900 4500 50  0001 C CNN
F 3 "" H 6900 4500 50  0001 C CNN
	1    6900 4500
	1    0    0    -1  
$EndComp
$Comp
L -5V #PWR?
U 1 1 5DE22DAA
P 6900 5300
F 0 "#PWR?" H 6900 5400 50  0001 L CNN
F 1 "-5V" H 6900 5450 50  0000 C CNN
F 2 "" H 6900 5300 50  0001 C CNN
F 3 "" H 6900 5300 50  0001 C CNN
	1    6900 5300
	-1   0    0    1   
$EndComp
$Comp
L -5V #PWR?
U 1 1 5DE22E5F
P 8050 5200
F 0 "#PWR?" H 8050 5300 50  0001 L CNN
F 1 "-5V" H 8050 5350 50  0000 C CNN
F 2 "" H 8050 5200 50  0001 C CNN
F 3 "" H 8050 5200 50  0001 C CNN
	1    8050 5200
	-1   0    0    1   
$EndComp
Wire Wire Line
	6700 5500 7350 5500
Wire Wire Line
	7350 5500 7350 4900
Wire Wire Line
	6900 5300 6900 5200
Wire Wire Line
	8050 5200 8050 5100
Wire Wire Line
	6900 4600 6900 4500
Wire Wire Line
	8050 4400 8050 4500
$Comp
L +5V #PWR?
U 1 1 5DE231F0
P 8750 2250
F 0 "#PWR?" H 8750 2100 50  0001 C CNN
F 1 "+5V" H 8750 2390 50  0000 C CNN
F 2 "" H 8750 2250 50  0001 C CNN
F 3 "" H 8750 2250 50  0001 C CNN
	1    8750 2250
	1    0    0    -1  
$EndComp
$Comp
L -5V #PWR?
U 1 1 5DE23261
P 8750 2950
F 0 "#PWR?" H 8750 3050 50  0001 L CNN
F 1 "-5V" H 8750 3100 50  0000 C CNN
F 2 "" H 8750 2950 50  0001 C CNN
F 3 "" H 8750 2950 50  0001 C CNN
	1    8750 2950
	-1   0    0    1   
$EndComp
Wire Wire Line
	8750 2300 8750 2250
Wire Wire Line
	8750 2950 8750 2900
$Comp
L R_Small R?
U 1 1 5DE2339A
P 8400 2300
F 0 "R?" H 8430 2320 50  0000 L CNN
F 1 "150K" H 8430 2260 50  0000 L CNN
F 2 "" H 8400 2300 50  0001 C CNN
F 3 "" H 8400 2300 50  0001 C CNN
	1    8400 2300
	-1   0    0    1   
$EndComp
$Comp
L GND #PWR?
U 1 1 5DE23462
P 8400 2050
F 0 "#PWR?" H 8400 1800 50  0001 C CNN
F 1 "GND" H 8400 1900 50  0000 C CNN
F 2 "" H 8400 2050 50  0001 C CNN
F 3 "" H 8400 2050 50  0001 C CNN
	1    8400 2050
	-1   0    0    1   
$EndComp
$Comp
L R_Small R?
U 1 1 5DE23626
P 8750 3200
F 0 "R?" H 8780 3220 50  0000 L CNN
F 1 "180K" H 8780 3160 50  0000 L CNN
F 2 "" H 8750 3200 50  0001 C CNN
F 3 "" H 8750 3200 50  0001 C CNN
	1    8750 3200
	0    1    1    0   
$EndComp
$Comp
L C_Small C?
U 1 1 5DE236B0
P 8750 3450
F 0 "C?" H 8760 3520 50  0000 L CNN
F 1 "22nF" H 8760 3370 50  0000 L CNN
F 2 "" H 8750 3450 50  0001 C CNN
F 3 "" H 8750 3450 50  0001 C CNN
	1    8750 3450
	0    1    1    0   
$EndComp
Wire Wire Line
	7800 2500 8000 2500
Wire Wire Line
	8200 2500 8550 2500
Wire Wire Line
	8400 2400 8400 2500
Connection ~ 8400 2500
Wire Wire Line
	8400 2200 8400 2050
Wire Wire Line
	8550 2700 8450 2700
Wire Wire Line
	8450 2700 8450 3450
Wire Wire Line
	8150 3200 8650 3200
Wire Wire Line
	8850 3200 9250 3200
Wire Wire Line
	9250 2600 9250 3450
Wire Wire Line
	9150 2600 9650 2600
Wire Wire Line
	8450 3450 8650 3450
Connection ~ 8450 3200
Wire Wire Line
	9250 3450 8850 3450
Connection ~ 9250 3200
$Comp
L CP_Small C?
U 1 1 5DE23AC0
P 8100 2500
F 0 "C?" H 8110 2570 50  0000 L CNN
F 1 "22nF" H 8110 2420 50  0000 L CNN
F 2 "" H 8100 2500 50  0001 C CNN
F 3 "" H 8100 2500 50  0001 C CNN
	1    8100 2500
	0    1    1    0   
$EndComp
$Comp
L R_Variable R?
U 1 1 5DE23BA6
P 8000 3200
F 0 "R?" V 8100 3100 50  0000 L CNN
F 1 "22K" V 7900 3150 50  0000 L CNN
F 2 "" V 7930 3200 50  0001 C CNN
F 3 "" H 8000 3200 50  0001 C CNN
	1    8000 3200
	0    1    1    0   
$EndComp
$Comp
L GND #PWR?
U 1 1 5DE23C39
P 7700 3200
F 0 "#PWR?" H 7700 2950 50  0001 C CNN
F 1 "GND" H 7700 3050 50  0000 C CNN
F 2 "" H 7700 3200 50  0001 C CNN
F 3 "" H 7700 3200 50  0001 C CNN
	1    7700 3200
	1    0    0    -1  
$EndComp
Wire Wire Line
	7700 3200 7850 3200
Text GLabel 9650 2600 2    60   Input ~ 0
OUT
Connection ~ 9250 2600
$Comp
L C_Small C?
U 1 1 5DE24386
P 5550 2450
F 0 "C?" H 5560 2520 50  0000 L CNN
F 1 "0.1uF" H 5560 2370 50  0000 L CNN
F 2 "" H 5550 2450 50  0001 C CNN
F 3 "" H 5550 2450 50  0001 C CNN
	1    5550 2450
	-1   0    0    1   
$EndComp
$Comp
L -5V #PWR?
U 1 1 5DE24B63
P 5350 2700
F 0 "#PWR?" H 5350 2800 50  0001 L CNN
F 1 "-5V" H 5350 2850 50  0000 C CNN
F 2 "" H 5350 2700 50  0001 C CNN
F 3 "" H 5350 2700 50  0001 C CNN
	1    5350 2700
	-1   0    0    1   
$EndComp
$Comp
L +5V #PWR?
U 1 1 5DE24BF2
P 5350 2200
F 0 "#PWR?" H 5350 2050 50  0001 C CNN
F 1 "+5V" H 5350 2340 50  0000 C CNN
F 2 "" H 5350 2200 50  0001 C CNN
F 3 "" H 5350 2200 50  0001 C CNN
	1    5350 2200
	1    0    0    -1  
$EndComp
$Comp
L C_Small C?
U 1 1 5DE24CB7
P 5150 2450
F 0 "C?" H 5160 2520 50  0000 L CNN
F 1 "0.1uF" H 5160 2370 50  0000 L CNN
F 2 "" H 5150 2450 50  0001 C CNN
F 3 "" H 5150 2450 50  0001 C CNN
	1    5150 2450
	-1   0    0    1   
$EndComp
Wire Wire Line
	5150 2350 5150 2250
Wire Wire Line
	5150 2250 5550 2250
Wire Wire Line
	5350 2250 5350 2200
Wire Wire Line
	5550 2250 5550 2350
Connection ~ 5350 2250
Wire Wire Line
	5150 2550 5150 2650
Wire Wire Line
	5150 2650 5550 2650
Wire Wire Line
	5350 2650 5350 2700
Wire Wire Line
	5550 2650 5550 2550
Connection ~ 5350 2650
$EndSCHEMATC
